<svg xmlns="http://www.w3.org/2000/svg" width="18.671" height="18.638" viewBox="0 0 18.671 18.638">
  <g id="Group_47" data-name="Group 47" transform="translate(-432 -7223)">
    <g id="Group_39" data-name="Group 39" transform="translate(1142.504 7191.693)">
      <path id="Path_1588" data-name="Path 1588" d="M-696.537,49.945H-705.8c-.185-.033-.371-.056-.554-.1a5.094,5.094,0,0,1-4-3.817c-.071-.254-.1-.519-.153-.779V36c.032-.183.06-.368.1-.55a5.147,5.147,0,0,1,5.064-4.143q4.174-.009,8.347,0a4.6,4.6,0,0,1,1.012.1,5.073,5.073,0,0,1,4,3.812c.071.254.1.519.153.779V45.25c-.032.183-.056.369-.1.55a5.094,5.094,0,0,1-3.822,3.992C-696.009,49.864-696.276,49.895-696.537,49.945Zm-4.64-1.67v.009q2.033,0,4.066,0a3.855,3.855,0,0,0,1.236-.18,3.521,3.521,0,0,0,2.382-3.393c-.017-2.724,0-5.447,0-8.171a3.743,3.743,0,0,0-.18-1.2,3.527,3.527,0,0,0-3.4-2.378c-2.729.017-5.458,0-8.187,0a3.774,3.774,0,0,0-1.2.18,3.521,3.521,0,0,0-2.382,3.393c.017,2.724.005,5.447,0,8.171a3.811,3.811,0,0,0,.234,1.352,3.455,3.455,0,0,0,3.072,2.206C-704.082,48.291-702.63,48.275-701.177,48.275Z" fill="#fff"/>
      <path id="Path_1589" data-name="Path 1589" d="M-576.839,159.958a4.819,4.819,0,0,1-4.8,4.81,4.819,4.819,0,0,1-4.823-4.806,4.819,4.819,0,0,1,4.81-4.8A4.819,4.819,0,0,1-576.839,159.958Zm-1.667.007a3.135,3.135,0,0,0-3.15-3.139,3.134,3.134,0,0,0-3.14,3.13,3.134,3.134,0,0,0,3.14,3.148A3.135,3.135,0,0,0-578.506,159.964Z" transform="translate(-119.518 -119.337)" fill="#fff"/>
      <path id="Path_1590" data-name="Path 1590" d="M-349.2,119.124a1.218,1.218,0,0,1-1.216-1.216,1.228,1.228,0,0,1,1.21-1.208,1.23,1.23,0,0,1,1.226,1.211A1.22,1.22,0,0,1-349.2,119.124Z" transform="translate(-346.956 -82.279)" fill="#fff"/>
    </g>
  </g>
</svg>
