<svg xmlns="http://www.w3.org/2000/svg" width="17.112" height="17.036" viewBox="0 0 17.112 17.036">
  <g id="Group_45" data-name="Group 45" transform="translate(-312 -7225)">
    <g id="black" transform="translate(312 7225)">
      <g id="linkedin" transform="translate(0 0)">
        <path id="Path_1587" data-name="Path 1587" d="M3.642,16.189V4.923H.16V16.189Zm0-15.26A1.712,1.712,0,0,0,1.858-.846,1.718,1.718,0,0,0,.053.93,1.708,1.708,0,0,0,1.816,2.706h.021A1.719,1.719,0,0,0,3.642.93Zm5.681,15.26V9.77a2.611,2.611,0,0,1,.126-.932,2.091,2.091,0,0,1,1.96-1.4,2.077,2.077,0,0,1,2.25,2.33v6.419h3.506V9.6c0-3.531-1.885-5.173-4.4-5.173A3.805,3.805,0,0,0,9.3,6.362l.025-1.507h-3.5c.05,1.079,0,11.334,0,11.334Z" transform="translate(-0.053 0.846)" fill="#fff" fill-rule="evenodd"/>
      </g>
    </g>
  </g>
</svg>
