<svg xmlns="http://www.w3.org/2000/svg" width="15.962" height="15.962" viewBox="0 0 15.962 15.962">
  <g id="noun_dollar_2731108" transform="translate(-51.93 -51.93)">
    <path id="Path_6407" data-name="Path 6407" d="M66.869,66.922a1.6,1.6,0,0,1-1.594-1.594.442.442,0,0,0-.883,0,2.48,2.48,0,0,0,2.036,2.436v.393a.442.442,0,0,0,.883,0v-.393a2.476,2.476,0,0,0-.443-4.913,1.594,1.594,0,1,1,1.594-1.594.442.442,0,1,0,.883,0,2.48,2.48,0,0,0-2.035-2.435v-.393a.442.442,0,0,0-.883,0v.393a2.476,2.476,0,0,0,.441,4.913,1.594,1.594,0,0,1,0,3.188Z" transform="translate(-6.958 -3.382)" fill="#b8948b"/>
    <path id="Path_6408" data-name="Path 6408" d="M59.911,67.892a7.981,7.981,0,1,0-7.981-7.981A7.99,7.99,0,0,0,59.911,67.892Zm0-15.079a7.1,7.1,0,1,1-7.1,7.1A7.106,7.106,0,0,1,59.911,52.813Z" fill="#b8948b"/>
  </g>
</svg>
