<svg id="noun_Heart_3529516" xmlns="http://www.w3.org/2000/svg" width="20.33" height="18.22" viewBox="0 0 20.33 18.22">
  <path id="Path_45" data-name="Path 45" d="M24.9,13.211a5.5,5.5,0,0,0-4.891-3.552c-.115-.007-.23-.009-.345-.009A6.66,6.66,0,0,0,15.148,11.4,6.66,6.66,0,0,0,10.63,9.65c-.115,0-.23,0-.345.009a5.5,5.5,0,0,0-4.891,3.552,5.7,5.7,0,0,0,1.228,6.131l8.2,8.393a.447.447,0,0,0,.323.135.456.456,0,0,0,.323-.135l8.2-8.393A5.7,5.7,0,0,0,24.9,13.211Zm-1.874,5.5-7.881,8.064L7.268,18.712a4.8,4.8,0,0,1-1.034-5.171,4.56,4.56,0,0,1,4.1-2.981c.1,0,.2-.007.3-.007a5.782,5.782,0,0,1,4.193,1.784.466.466,0,0,0,.65,0,5.769,5.769,0,0,1,4.193-1.784c.1,0,.2,0,.3.007a4.557,4.557,0,0,1,4.1,2.981A4.808,4.808,0,0,1,23.029,18.712Z" transform="translate(-4.983 -9.65)" fill="#b8948b"/>
</svg>
