<svg xmlns="http://www.w3.org/2000/svg" width="13.784" height="12.95" viewBox="0 0 13.784 12.95">
  <g id="noun_profile_1602416-" transform="translate(-53 -1)">
    <g id="Group_1715" data-name="Group 1715" transform="translate(53 1)">
      <path id="Path_6404" data-name="Path 6404" d="M53.181,54.9H52.049v-.577a.321.321,0,0,0-.641,0V54.9h-3.27v-.577a.321.321,0,1,0-.641,0V54.9h-3.27v-.577a.321.321,0,1,0-.641,0V54.9H42.6A1.6,1.6,0,0,0,41,56.5v8.847a1.6,1.6,0,0,0,1.6,1.6H53.181a1.6,1.6,0,0,0,1.6-1.6V56.5A1.6,1.6,0,0,0,53.181,54.9ZM42.6,55.539h.983v.727a.321.321,0,1,0,.641,0v-.727H47.5v.727a.321.321,0,1,0,.641,0v-.727h3.27v.727a.321.321,0,1,0,.641,0v-.727h1.133a.963.963,0,0,1,.962.962v1.881h-12.5V56.5A.963.963,0,0,1,42.6,55.539ZM53.181,66.309H42.6a.963.963,0,0,1-.962-.962V59.022h12.5v6.326A.963.963,0,0,1,53.181,66.309Z" transform="translate(-41 -54)" fill="#b8948b"/>
    </g>
  </g>
</svg>
